<?xml version="1.0" standalone="no"?>
<!DOCTYPE svg PUBLIC "-//W3C//DTD SVG 1.1//EN" "http://www.w3.org/Graphics/SVG/1.1/DTD/svg11.dtd" >
<!--
2013-9-30: Created.
-->
<svg>
<metadata>
Created by iconfont
</metadata>
<defs>

<font id="iconfont" horiz-adv-x="1024" >
  <font-face
    font-family="iconfont"
    font-weight="500"
    font-stretch="normal"
    units-per-em="1024"
    ascent="896"
    descent="-128"
  />
    <missing-glyph />
    
    <glyph glyph-name="unlike-fill" unicode="&#59498;" d="M885.9 405.7c3.6 12 5.4 24.4 5.4 37 0 28.3-9.3 55.5-26.1 77.7 3.6 12 5.4 24.4 5.4 37 0 28.3-9.3 55.5-26.1 77.7 3.6 12 5.4 24.4 5.4 37 0 51.6-30.7 98.1-78.3 118.4-8.3 3.6-17.2 5.4-26.5 5.4H273v-428h0.3l85.8-310.8C372.9 7 418.9-28 470.9-28c29.7 0 57.4 11.8 77.9 33.4 20.5 21.5 31 49.7 29.5 79.4l-6 122.9h239.9c12.1 0 23.9 3.2 34.3 9.3 40.4 23.5 65.5 66.1 65.5 111 0 28.3-9.3 55.5-26.1 77.7zM112 764v-364c0-17.7 14.3-32 32-32h65V796h-65c-17.7 0-32-14.3-32-32z"  horiz-adv-x="1024" />

    
    <glyph glyph-name="icon_like_filled" unicode="&#58997;" d="M248-16h-98.8c-16.6 0-30.4 12.6-31.9 29.1l-42.2 464C73.5 495.8 88.2 512 107 512h141c17.7 0 32-14.3 32-32v-464c0-17.7-14.3-32-32-32zM602.2 511.5c4.4 16.4 13.8 59 13.8 120.5 0 216-144 240-144 152 0-175.7-78.8-243.1-112.7-264-9.5-5.8-15.3-16.1-15.3-27.3V48c0-35.3 28.7-64 64-64h375.2c28.7 0 53.9 19.1 61.6 46.8l112.4 403.3c8.3 39.7-22 77-62.5 77.1l-292.5 0.3z"  horiz-adv-x="1024" />

    


  </font>
</defs></svg>
